[gd_scene load_steps=7 format=2]

[ext_resource path="res://Scenes/Tower/DOTParticle.tscn" type="PackedScene" id=1]
[ext_resource path="res://Scripts/Tower/DamageOverTime.gd" type="Script" id=2]

[sub_resource type="Shader" id=2]
code = "shader_type canvas_item;

uniform vec4 color: hint_color;
uniform float multiplier = 0.2;
uniform float softness = 3.0;

void fragment() {
	float val = distance(UV, vec2(0.5));
	float stepp = smoothstep(multiplier, softness, val);
	COLOR = vec4(color.rgb, (1.0-stepp)*color.a);
}"

[sub_resource type="ShaderMaterial" id=3]
shader = SubResource( 2 )
shader_param/color = Color( 1, 0.352941, 0, 0.266667 )
shader_param/multiplier = 0.1
shader_param/softness = 0.5

[sub_resource type="QuadMesh" id=4]

[sub_resource type="CircleShape2D" id=1]
radius = 64.0

[node name="DOT" type="Node2D"]
script = ExtResource( 2 )

[node name="MeshInstance2D" type="MeshInstance2D" parent="."]
material = SubResource( 3 )
scale = Vector2( 200, 200 )
mesh = SubResource( 4 )

[node name="Area2D" type="Area2D" parent="."]
visible = false
collision_layer = 0

[node name="CollisionShape2D" type="CollisionShape2D" parent="Area2D"]
shape = SubResource( 1 )

[node name="DOTParticle" parent="." instance=ExtResource( 1 )]

[node name="Timer" type="Timer" parent="."]
wait_time = 10.0
one_shot = true
autostart = true

[connection signal="timeout" from="Timer" to="." method="_on_Timer_timeout"]
