[gd_scene load_steps=4 format=2]

[ext_resource path="res://Scripts/Tower/Projectile.gd" type="Script" id=1]

[sub_resource type="CircleShape2D" id=2]
radius = 96.0

[sub_resource type="RectangleShape2D" id=1]
extents = Vector2( 2.5, 2.5 )

[node name="Projectile" type="Node2D"]
z_index = 5
script = ExtResource( 1 )

[node name="SplashArea" type="Area2D" parent="."]
collision_layer = 0
collision_mask = 3
monitorable = false

[node name="CollisionShape2D" type="CollisionShape2D" parent="SplashArea"]
shape = SubResource( 2 )

[node name="DetectArea" type="Area2D" parent="."]
collision_layer = 0
collision_mask = 3
monitorable = false

[node name="CollisionShape2D" type="CollisionShape2D" parent="DetectArea"]
shape = SubResource( 1 )

[node name="DespawnTimer" type="Timer" parent="."]
one_shot = true

[connection signal="area_entered" from="DetectArea" to="." method="_on_DetectArea_area_entered"]
[connection signal="timeout" from="DespawnTimer" to="." method="_on_DespawnTimer_timeout"]
