[gd_scene load_steps=9 format=2]

[ext_resource path="res://Assets/Art/elf_tower.png" type="Texture" id=1]
[ext_resource path="res://Scripts/Tower/TestTower.gd" type="Script" id=2]
[ext_resource path="res://Assets/Art/atlas_new.png" type="Texture" id=3]

[sub_resource type="TileSet" id=1]
0/name = "Background"
0/texture = ExtResource( 3 )
0/tex_offset = Vector2( 0, 0 )
0/modulate = Color( 1, 1, 1, 1 )
0/region = Rect2( 0, 0, 192, 32 )
0/tile_mode = 1
0/autotile/bitmask_mode = 0
0/autotile/bitmask_flags = [ Vector2( 0, 0 ), 325, Vector2( 1, 0 ), 325, Vector2( 2, 0 ), 325, Vector2( 3, 0 ), 325, Vector2( 4, 0 ), 325, Vector2( 5, 0 ), 325 ]
0/autotile/icon_coordinate = Vector2( 0, 0 )
0/autotile/tile_size = Vector2( 32, 32 )
0/autotile/spacing = 0
0/autotile/occluder_map = [  ]
0/autotile/navpoly_map = [  ]
0/autotile/priority_map = [ Vector3( 1, 0, 10 ), Vector3( 3, 0, 10 ), Vector3( 4, 0, 5 ) ]
0/autotile/z_index_map = [  ]
0/occluder_offset = Vector2( 0, 0 )
0/navigation_offset = Vector2( 0, 0 )
0/shape_offset = Vector2( 0, 0 )
0/shape_transform = Transform2D( 1, 0, 0, 1, 0, 0 )
0/shape_one_way = false
0/shape_one_way_margin = 0.0
0/shapes = [  ]
0/z_index = 0

[sub_resource type="TileSet" id=2]
0/name = "Path"
0/texture = ExtResource( 3 )
0/tex_offset = Vector2( 0, 0 )
0/modulate = Color( 1, 1, 1, 1 )
0/region = Rect2( 0, 32, 256, 128 )
0/tile_mode = 1
0/autotile/bitmask_mode = 1
0/autotile/bitmask_flags = [ Vector2( 0, 0 ), 16, Vector2( 1, 0 ), 128, Vector2( 1, 1 ), 146, Vector2( 1, 2 ), 2, Vector2( 2, 0 ), 432, Vector2( 2, 1 ), 438, Vector2( 2, 2 ), 54, Vector2( 2, 3 ), 48, Vector2( 3, 0 ), 504, Vector2( 3, 1 ), 511, Vector2( 3, 2 ), 63, Vector2( 3, 3 ), 56, Vector2( 4, 0 ), 216, Vector2( 4, 1 ), 219, Vector2( 4, 2 ), 27, Vector2( 4, 3 ), 24, Vector2( 5, 0 ), 176, Vector2( 5, 1 ), 146, Vector2( 5, 2 ), 50, Vector2( 6, 0 ), 56, Vector2( 6, 2 ), 56, Vector2( 7, 0 ), 152, Vector2( 7, 1 ), 146, Vector2( 7, 2 ), 26 ]
0/autotile/icon_coordinate = Vector2( 3, 1 )
0/autotile/tile_size = Vector2( 32, 32 )
0/autotile/spacing = 0
0/autotile/occluder_map = [  ]
0/autotile/navpoly_map = [  ]
0/autotile/priority_map = [  ]
0/autotile/z_index_map = [  ]
0/occluder_offset = Vector2( 0, 0 )
0/navigation_offset = Vector2( 0, 0 )
0/shape_offset = Vector2( 0, 0 )
0/shape_transform = Transform2D( 1, 0, 0, 1, 0, 0 )
0/shape_one_way = false
0/shape_one_way_margin = 0.0
0/shapes = [  ]
0/z_index = 0

[sub_resource type="TileSet" id=3]
0/name = "Elf_Tower"
0/texture = ExtResource( 1 )
0/tex_offset = Vector2( 0, 0 )
0/modulate = Color( 1, 1, 1, 1 )
0/region = Rect2( 0, 0, 32, 32 )
0/tile_mode = 0
0/occluder_offset = Vector2( 0, 0 )
0/navigation_offset = Vector2( 0, 0 )
0/shape_offset = Vector2( 0, 0 )
0/shape_transform = Transform2D( 1, 0, 0, 1, 0, 0 )
0/shape_one_way = false
0/shape_one_way_margin = 0.0
0/shapes = [  ]
0/z_index = 0

[sub_resource type="Curve2D" id=4]
_data = {
"points": PoolVector2Array( 0, 0, 0, 0, -2.58497, 48.228, 0, 0, 0, 0, 79.6416, 48.8226, 0, 0, 0, 0, 79.6416, 177.257, 0, 0, 0, 0, 207.55, 177.257, 0, 0, 0, 0, 209.377, 303.313, 0, 0, 0, 0, 304.394, 303.907, 0, 0, 0, 0, 305.003, 144.554, 0, 0, 0, 0, 431.693, 145.743, 0, 0, 0, 0, 432.302, 401.422, 0, 0, 0, 0, 643.655, 400.233 )
}

[sub_resource type="Curve2D" id=5]
_data = {
"points": PoolVector2Array( 0, 0, 0, 0, 2.04871, 47, 0, 0, 0, 0, 638.174, 399 )
}

[node name="Level" type="Node2D"]
scale = Vector2( 0.976223, 1 )
script = ExtResource( 2 )

[node name="Background" type="TileMap" parent="."]
tile_set = SubResource( 1 )
cell_size = Vector2( 32, 32 )
cell_custom_transform = Transform2D( 0, 0, 0, 0, 0, 0 )
format = 1
tile_data = PoolIntArray( 0, 0, 0, 1, 0, 0, 2, 0, 0, 3, 0, 0, 4, 0, 0, 5, 0, 0, 6, 0, 0, 7, 0, 0, 8, 0, 0, 9, 0, 0, 10, 0, 0, 11, 0, 0, 12, 0, 0, 13, 0, 0, 14, 0, 0, 15, 0, 0, 16, 0, 0, 17, 0, 0, 18, 0, 0, 19, 0, 0, 65536, 0, 0, 65537, 0, 3, 65538, 0, 1, 65539, 0, 4, 65540, 0, 3, 65541, 0, 1, 65542, 0, 3, 65543, 0, 3, 65544, 0, 1, 65545, 0, 3, 65546, 0, 1, 65547, 0, 1, 65548, 0, 4, 65549, 0, 5, 65550, 0, 1, 65551, 0, 1, 65552, 0, 1, 65553, 0, 1, 65554, 0, 4, 65555, 0, 0, 131072, 0, 0, 131073, 0, 4, 131074, 0, 5, 131075, 0, 1, 131076, 0, 3, 131077, 0, 3, 131078, 0, 1, 131079, 0, 1, 131080, 0, 4, 131081, 0, 1, 131082, 0, 3, 131083, 0, 3, 131084, 0, 3, 131085, 0, 1, 131086, 0, 4, 131087, 0, 4, 131088, 0, 4, 131089, 0, 3, 131090, 0, 3, 131091, 0, 0, 196608, 0, 0, 196609, 0, 4, 196610, 0, 1, 196611, 0, 4, 196612, 0, 1, 196613, 0, 1, 196614, 0, 1, 196615, 0, 1, 196616, 0, 3, 196617, 0, 3, 196618, 0, 3, 196619, 0, 1, 196620, 0, 3, 196621, 0, 3, 196622, 0, 1, 196623, 0, 3, 196624, 0, 1, 196625, 0, 1, 196626, 0, 1, 196627, 0, 0, 262144, 0, 0, 262145, 0, 1, 262146, 0, 3, 262147, 0, 1, 262148, 0, 1, 262149, 0, 1, 262150, 0, 1, 262151, 0, 3, 262152, 0, 1, 262153, 0, 1, 262154, 0, 3, 262155, 0, 4, 262156, 0, 3, 262157, 0, 1, 262158, 0, 3, 262159, 0, 1, 262160, 0, 5, 262161, 0, 3, 262162, 0, 3, 262163, 0, 0, 327680, 0, 0, 327681, 0, 1, 327682, 0, 3, 327683, 0, 4, 327684, 0, 3, 327685, 0, 0, 327686, 0, 5, 327687, 0, 1, 327688, 0, 3, 327689, 0, 3, 327690, 0, 1, 327691, 0, 3, 327692, 0, 3, 327693, 0, 4, 327694, 0, 1, 327695, 0, 3, 327696, 0, 1, 327697, 0, 1, 327698, 0, 1, 327699, 0, 0, 393216, 0, 0, 393217, 0, 1, 393218, 0, 3, 393219, 0, 4, 393220, 0, 1, 393221, 0, 1, 393222, 0, 1, 393223, 0, 3, 393224, 0, 1, 393225, 0, 1, 393226, 0, 1, 393227, 0, 3, 393228, 0, 1, 393229, 0, 4, 393230, 0, 1, 393231, 0, 1, 393232, 0, 3, 393233, 0, 1, 393234, 0, 0, 393235, 0, 0, 458752, 0, 0, 458753, 0, 4, 458754, 0, 3, 458755, 0, 3, 458756, 0, 4, 458757, 0, 4, 458758, 0, 1, 458759, 0, 1, 458760, 0, 3, 458761, 0, 4, 458762, 0, 1, 458763, 0, 4, 458764, 0, 3, 458765, 0, 3, 458766, 0, 4, 458767, 0, 4, 458768, 0, 5, 458769, 0, 4, 458770, 0, 1, 458771, 0, 0, 524288, 0, 0, 524289, 0, 1, 524290, 0, 1, 524291, 0, 1, 524292, 0, 1, 524293, 0, 4, 524294, 0, 0, 524295, 0, 1, 524296, 0, 2, 524297, 0, 5, 524298, 0, 1, 524299, 0, 2, 524300, 0, 1, 524301, 0, 4, 524302, 0, 1, 524303, 0, 3, 524304, 0, 3, 524305, 0, 1, 524306, 0, 0, 524307, 0, 0, 589824, 0, 0, 589825, 0, 3, 589826, 0, 4, 589827, 0, 4, 589828, 0, 3, 589829, 0, 1, 589830, 0, 2, 589831, 0, 3, 589832, 0, 3, 589833, 0, 4, 589834, 0, 3, 589835, 0, 1, 589836, 0, 3, 589837, 0, 3, 589838, 0, 1, 589839, 0, 1, 589840, 0, 1, 589841, 0, 1, 589842, 0, 1, 589843, 0, 0, 655360, 0, 0, 655361, 0, 4, 655362, 0, 1, 655363, 0, 1, 655364, 0, 1, 655365, 0, 1, 655366, 0, 1, 655367, 0, 3, 655368, 0, 3, 655369, 0, 3, 655370, 0, 3, 655371, 0, 3, 655372, 0, 3, 655373, 0, 4, 655374, 0, 1, 655375, 0, 3, 655376, 0, 1, 655377, 0, 1, 655378, 0, 1, 655379, 0, 0, 720896, 0, 0, 720897, 0, 3, 720898, 0, 3, 720899, 0, 4, 720900, 0, 1, 720901, 0, 1, 720902, 0, 1, 720903, 0, 5, 720904, 0, 3, 720905, 0, 1, 720906, 0, 1, 720907, 0, 3, 720908, 0, 3, 720909, 0, 3, 720910, 0, 1, 720911, 0, 1, 720912, 0, 3, 720913, 0, 1, 720914, 0, 4, 720915, 0, 0, 786432, 0, 0, 786433, 0, 0, 786434, 0, 4, 786435, 0, 3, 786436, 0, 2, 786437, 0, 3, 786438, 0, 3, 786439, 0, 1, 786440, 0, 5, 786441, 0, 1, 786442, 0, 0, 786443, 0, 3, 786444, 0, 4, 786445, 0, 3, 786446, 0, 4, 786447, 0, 1, 786448, 0, 4, 786449, 0, 3, 786450, 0, 1, 786451, 0, 0, 851968, 0, 0, 851969, 0, 1, 851970, 0, 3, 851971, 0, 1, 851972, 0, 1, 851973, 0, 1, 851974, 0, 1, 851975, 0, 1, 851976, 0, 1, 851977, 0, 0, 851978, 0, 3, 851979, 0, 4, 851980, 0, 1, 851981, 0, 0, 851982, 0, 1, 851983, 0, 3, 851984, 0, 1, 851985, 0, 3, 851986, 0, 1, 851987, 0, 0, 917504, 0, 0, 917505, 0, 0, 917506, 0, 0, 917507, 0, 0, 917508, 0, 0, 917509, 0, 0, 917510, 0, 0, 917511, 0, 0, 917512, 0, 0, 917513, 0, 0, 917514, 0, 0, 917515, 0, 0, 917516, 0, 0, 917517, 0, 0, 917518, 0, 0, 917519, 0, 0, 917520, 0, 0, 917521, 0, 0, 917522, 0, 0, 917523, 0, 0 )

[node name="Path" type="TileMap" parent="."]
tile_set = SubResource( 2 )
cell_size = Vector2( 32, 32 )
format = 1
tile_data = PoolIntArray( 65536, 0, 196610, 65537, 0, 6, 65538, 0, 7, 131074, 0, 65541, 196610, 0, 65541, 262146, 0, 65541, 262153, 0, 5, 262154, 0, 131078, 262155, 0, 131078, 262156, 0, 6, 262157, 0, 7, 327682, 0, 131077, 327683, 0, 196611, 327684, 0, 196611, 327685, 0, 6, 327686, 0, 7, 327689, 0, 65537, 327693, 0, 65537, 393222, 0, 65541, 393225, 0, 65541, 393229, 0, 65543, 458758, 0, 65537, 458761, 0, 65537, 458765, 0, 65543, 524294, 0, 65541, 524297, 0, 65537, 524301, 0, 65543, 589830, 0, 131077, 589831, 0, 131078, 589832, 0, 6, 589833, 0, 131079, 589837, 0, 65543, 655373, 0, 65541, 720909, 0, 65543, 786445, 0, 131077, 786446, 0, 131078, 786447, 0, 196611, 786448, 0, 131078, 786449, 0, 6, 786450, 0, 131078, 786451, 0, 196612 )

[node name="Tower" type="TileMap" parent="."]
tile_set = SubResource( 3 )
cell_size = Vector2( 32, 32 )
format = 1
tile_data = PoolIntArray( 131075, 0, 0, 196611, 0, 0, 196618, 0, 0, 196621, 0, 0, 262148, 0, 0, 393223, 0, 0, 458764, 0, 0, 524293, 0, 0, 589838, 0, 0 )

[node name="Path2D" type="Path2D" parent="."]
curve = SubResource( 4 )

[node name="WaveTimer" type="Timer" parent="."]
one_shot = true

[node name="MobTimer" type="Timer" parent="."]

[node name="Path2D2" type="Path2D" parent="."]
curve = SubResource( 5 )

[node name="Camera2D" type="Camera2D" parent="."]
position = Vector2( 323.697, 233 )
current = true
zoom = Vector2( 0.7, 0.8 )

[connection signal="timeout" from="WaveTimer" to="." method="_on_WaveTimer_timeout"]
[connection signal="timeout" from="MobTimer" to="." method="_on_MobTimer_timeout"]
