{
	"Ballista": {
		"sfx_shoot": "res://Assets/Music/ShootBallista.ogg",
        "shoot_vol": -20,
		"sfx_hit": "res://Assets/Music/HitElf_tower.ogg",
        "hit_vol": -5
	},
	"Flame_Thrower": {
		"sfx_shoot": "res://Assets/Music/ShootFlame_Thrower.ogg",
        "shoot_vol": -15,
		"sfx_hit": "res://Assets/Music/HitFlame_Thrower.ogg",
        "hit_vol": -15
	},
	"Elf_Tower": {
		"sfx_shoot": "res://Assets/Music/ShootElf_Tower.ogg",
        "shoot_vol": -10,
		"sfx_hit": "res://Assets/Music/HitElf_tower.ogg",
        "hit_vol": -10
	}
}