[gd_scene load_steps=3 format=2]

[ext_resource path="res://Assets/Card Tower/Elf_Tower_card.png" type="Texture" id=1]
[ext_resource path="res://Assets/UI/TowerRange.png" type="Texture" id=2]

[node name="ElfTower" type="Node2D"]
scale = Vector2( 2, 2 )

[node name="Sprite" type="Sprite" parent="."]
position = Vector2( 16, 16 )
texture = ExtResource( 1 )

[node name="Sprite2" type="Sprite" parent="."]
position = Vector2( 16, 16 )
scale = Vector2( 1.96187, 1.96187 )
texture = ExtResource( 2 )
