[gd_scene load_steps=6 format=2]

[ext_resource path="res://Scripts/Level/Cutscene1.gd" type="Script" id=1]
[ext_resource path="res://Scenes/Gameplay/DialogBox.tscn" type="PackedScene" id=2]
[ext_resource path="res://Scenes/Gameplay/QueenGalea.tscn" type="PackedScene" id=3]
[ext_resource path="res://Scenes/Level/CutScene1Audio.gd" type="Script" id=4]
[ext_resource path="res://Assets/Fonts/BreeSerif/Bree12.tres" type="DynamicFont" id=5]

[node name="CutScene1" type="Node2D"]
script = ExtResource( 1 )

[node name="Tween" type="Tween" parent="."]

[node name="ColorRect" type="ColorRect" parent="."]
anchor_left = 0.5
anchor_top = 0.5
anchor_right = 0.5
anchor_bottom = 0.5
margin_left = -512.0
margin_top = -320.0
margin_right = 512.0
margin_bottom = 320.0
color = Color( 0, 0, 0, 1 )
__meta__ = {
"_edit_use_anchors_": false
}

[node name="QueenGalea" parent="." instance=ExtResource( 3 )]
visible = false
position = Vector2( 0.47702, -4.9 )

[node name="DialogueBox" parent="." instance=ExtResource( 2 )]
visible = false

[node name="AudioStreamPlayer2D" type="AudioStreamPlayer2D" parent="."]
script = ExtResource( 4 )

[node name="LinkButton" type="LinkButton" parent="."]
anchor_left = 1.0
anchor_top = 1.0
anchor_right = 1.0
anchor_bottom = 1.0
margin_left = 415.0
margin_top = 292.0
margin_right = 499.0
margin_bottom = 315.0
underline = 2
__meta__ = {
"_edit_use_anchors_": false
}

[node name="Label" type="Label" parent="LinkButton"]
margin_left = 1.78174
margin_top = -1.7818
margin_right = 83.7817
margin_bottom = 21.2182
custom_fonts/font = ExtResource( 5 )
text = "Skip intro >"
__meta__ = {
"_edit_use_anchors_": false
}

[node name="Tween2" type="Tween" parent="."]

[connection signal="finished" from="AudioStreamPlayer2D" to="AudioStreamPlayer2D" method="_on_AudioStreamPlayer2D_finished"]
[connection signal="pressed" from="LinkButton" to="." method="finish"]
