[gd_scene load_steps=11 format=2]

[ext_resource path="res://Scripts/Level/LevelAlpha.gd" type="Script" id=1]
[ext_resource path="res://Assets/Art/atlas_new.png" type="Texture" id=2]
[ext_resource path="res://Assets/Art/elf_tower.png" type="Texture" id=3]
[ext_resource path="res://Assets/Art/gate - Copy.png" type="Texture" id=4]
[ext_resource path="res://Scripts/AudioStreamPlayer2D.gd" type="Script" id=5]

[sub_resource type="TileSet" id=1]
0/name = "Background"
0/texture = ExtResource( 2 )
0/tex_offset = Vector2( 0, 0 )
0/modulate = Color( 1, 1, 1, 1 )
0/region = Rect2( 0, 0, 192, 32 )
0/tile_mode = 1
0/autotile/bitmask_mode = 0
0/autotile/bitmask_flags = [ Vector2( 0, 0 ), 325, Vector2( 1, 0 ), 325, Vector2( 2, 0 ), 325, Vector2( 3, 0 ), 325, Vector2( 4, 0 ), 325, Vector2( 5, 0 ), 325 ]
0/autotile/icon_coordinate = Vector2( 0, 0 )
0/autotile/tile_size = Vector2( 32, 32 )
0/autotile/spacing = 0
0/autotile/occluder_map = [  ]
0/autotile/navpoly_map = [  ]
0/autotile/priority_map = [ Vector3( 1, 0, 10 ), Vector3( 3, 0, 10 ), Vector3( 4, 0, 5 ) ]
0/autotile/z_index_map = [  ]
0/occluder_offset = Vector2( 0, 0 )
0/navigation_offset = Vector2( 0, 0 )
0/shape_offset = Vector2( 0, 0 )
0/shape_transform = Transform2D( 1, 0, 0, 1, 0, 0 )
0/shape_one_way = false
0/shape_one_way_margin = 0.0
0/shapes = [  ]
0/z_index = 0

[sub_resource type="TileSet" id=2]
0/name = "Path"
0/texture = ExtResource( 2 )
0/tex_offset = Vector2( 0, 0 )
0/modulate = Color( 1, 1, 1, 1 )
0/region = Rect2( 0, 32, 256, 128 )
0/tile_mode = 1
0/autotile/bitmask_mode = 1
0/autotile/bitmask_flags = [ Vector2( 0, 0 ), 16, Vector2( 1, 0 ), 128, Vector2( 1, 1 ), 146, Vector2( 1, 2 ), 2, Vector2( 2, 0 ), 432, Vector2( 2, 1 ), 438, Vector2( 2, 2 ), 54, Vector2( 2, 3 ), 48, Vector2( 3, 0 ), 504, Vector2( 3, 1 ), 511, Vector2( 3, 2 ), 63, Vector2( 3, 3 ), 56, Vector2( 4, 0 ), 216, Vector2( 4, 1 ), 219, Vector2( 4, 2 ), 27, Vector2( 4, 3 ), 24, Vector2( 5, 0 ), 176, Vector2( 5, 1 ), 146, Vector2( 5, 2 ), 50, Vector2( 6, 0 ), 56, Vector2( 6, 2 ), 56, Vector2( 7, 0 ), 152, Vector2( 7, 1 ), 146, Vector2( 7, 2 ), 26 ]
0/autotile/icon_coordinate = Vector2( 3, 1 )
0/autotile/tile_size = Vector2( 32, 32 )
0/autotile/spacing = 0
0/autotile/occluder_map = [  ]
0/autotile/navpoly_map = [  ]
0/autotile/priority_map = [  ]
0/autotile/z_index_map = [  ]
0/occluder_offset = Vector2( 0, 0 )
0/navigation_offset = Vector2( 0, 0 )
0/shape_offset = Vector2( 0, 0 )
0/shape_transform = Transform2D( 1, 0, 0, 1, 0, 0 )
0/shape_one_way = false
0/shape_one_way_margin = 0.0
0/shapes = [  ]
0/z_index = 0
1/name = "atlas_new.png 1"
1/texture = ExtResource( 2 )
1/tex_offset = Vector2( 0, 0 )
1/modulate = Color( 1, 1, 1, 1 )
1/region = Rect2( 0, 0, 192, 32 )
1/tile_mode = 2
1/autotile/icon_coordinate = Vector2( 0, 0 )
1/autotile/tile_size = Vector2( 32, 32 )
1/autotile/spacing = 0
1/autotile/occluder_map = [  ]
1/autotile/navpoly_map = [  ]
1/autotile/priority_map = [  ]
1/autotile/z_index_map = [  ]
1/occluder_offset = Vector2( 0, 0 )
1/navigation_offset = Vector2( 0, 0 )
1/shape_offset = Vector2( 0, 0 )
1/shape_transform = Transform2D( 1, 0, 0, 1, 0, 0 )
1/shape_one_way = false
1/shape_one_way_margin = 0.0
1/shapes = [  ]
1/z_index = 0
2/name = "gate - Copy.png 2"
2/texture = ExtResource( 4 )
2/tex_offset = Vector2( 0, 0 )
2/modulate = Color( 1, 1, 1, 1 )
2/region = Rect2( 0, 0, 32, 32 )
2/tile_mode = 0
2/occluder_offset = Vector2( 0, 0 )
2/navigation_offset = Vector2( 0, 0 )
2/shape_offset = Vector2( 0, 0 )
2/shape_transform = Transform2D( 1, 0, 0, 1, 0, 0 )
2/shape_one_way = false
2/shape_one_way_margin = 0.0
2/shapes = [  ]
2/z_index = 0

[sub_resource type="TileSet" id=3]
0/name = "Elf_Tower"
0/texture = ExtResource( 3 )
0/tex_offset = Vector2( 0, 0 )
0/modulate = Color( 1, 1, 1, 1 )
0/region = Rect2( 0, 0, 32, 32 )
0/tile_mode = 0
0/occluder_offset = Vector2( 0, 0 )
0/navigation_offset = Vector2( 0, 0 )
0/shape_offset = Vector2( 0, 0 )
0/shape_transform = Transform2D( 1, 0, 0, 1, 0, 0 )
0/shape_one_way = false
0/shape_one_way_margin = 0.0
0/shapes = [  ]
0/z_index = 0

[sub_resource type="Curve2D" id=4]
_data = {
"points": PoolVector2Array( 0, 0, 0, 0, -32, 80, 0, 0, 0, 0, 112, 80, 0, 0, 0, 0, 112, 48, 0, 0, 0, 0, 272, 48, 0, 0, 0, 0, 272, 80, 0, 0, 0, 0, 336, 80, 0, 0, 0, 0, 336, 112, 0, 0, 0, 0, 432, 112, 0, 0, 0, 0, 432, 208, 0, 0, 0, 0, 304, 208, 0, 0, 0, 0, 304, 176, 0, 0, 0, 0, 176, 176, 0, 0, 0, 0, 176, 208, 0, 0, 0, 0, 112, 208, 0, 0, 0, 0, 112, 272, 0, 0, 0, 0, 208, 272, 0, 0, 0, 0, 208, 352 )
}

[sub_resource type="RectangleShape2D" id=5]

[node name="Level 1" type="Node2D"]
scale = Vector2( 2, 2 )
script = ExtResource( 1 )

[node name="Background" type="TileMap" parent="."]
tile_set = SubResource( 1 )
cell_size = Vector2( 32, 32 )
cell_custom_transform = Transform2D( 0, 0, 0, 0, 0, 0 )
format = 1
tile_data = PoolIntArray( -65538, 0, 0, -65537, 0, 0, -131072, 0, 0, -131071, 0, 0, -131070, 0, 0, -131069, 0, 0, -131068, 0, 0, -131067, 0, 0, -131066, 0, 0, -131065, 0, 0, -131064, 0, 0, -131063, 0, 0, -131062, 0, 0, -131061, 0, 0, -131060, 0, 0, -131059, 0, 0, -131058, 0, 0, -131057, 0, 0, -131056, 0, 0, -131055, 0, 0, -2, 0, 0, -1, 0, 1, -65536, 0, 3, -65535, 0, 1, -65534, 0, 3, -65533, 0, 2, -65532, 0, 1, -65531, 0, 3, -65530, 0, 3, -65529, 0, 1, -65528, 0, 1, -65527, 0, 1, -65526, 0, 1, -65525, 0, 1, -65524, 0, 3, -65523, 0, 3, -65522, 0, 4, -65521, 0, 1, -65520, 0, 1, -65519, 0, 0, 65534, 0, 0, 65535, 0, 4, 0, 0, 4, 1, 0, 3, 2, 0, 3, 3, 0, 1, 4, 0, 3, 5, 0, 1, 6, 0, 1, 7, 0, 3, 8, 0, 1, 9, 0, 4, 10, 0, 1, 11, 0, 1, 12, 0, 1, 13, 0, 4, 14, 0, 1, 15, 0, 3, 16, 0, 3, 17, 0, 0, 131070, 0, 0, 131071, 0, 1, 65536, 0, 2, 65537, 0, 3, 65538, 0, 1, 65539, 0, 4, 65540, 0, 3, 65541, 0, 1, 65542, 0, 3, 65543, 0, 3, 65544, 0, 1, 65545, 0, 3, 65546, 0, 1, 65547, 0, 1, 65548, 0, 4, 65549, 0, 5, 65550, 0, 1, 65551, 0, 3, 65552, 0, 1, 65553, 0, 0, 196606, 0, 0, 196607, 0, 3, 131072, 0, 1, 131073, 0, 4, 131074, 0, 5, 131075, 0, 1, 131076, 0, 3, 131077, 0, 3, 131078, 0, 1, 131079, 0, 1, 131080, 0, 4, 131081, 0, 1, 131082, 0, 3, 131083, 0, 3, 131084, 0, 3, 131085, 0, 1, 131086, 0, 4, 131087, 0, 1, 131088, 0, 3, 131089, 0, 0, 262142, 0, 0, 262143, 0, 3, 196608, 0, 4, 196609, 0, 4, 196610, 0, 1, 196611, 0, 4, 196612, 0, 1, 196613, 0, 1, 196614, 0, 1, 196615, 0, 1, 196616, 0, 3, 196617, 0, 3, 196618, 0, 3, 196619, 0, 1, 196620, 0, 3, 196621, 0, 3, 196622, 0, 1, 196623, 0, 1, 196624, 0, 4, 196625, 0, 0, 327678, 0, 0, 327679, 0, 3, 262144, 0, 5, 262145, 0, 1, 262146, 0, 3, 262147, 0, 1, 262148, 0, 1, 262149, 0, 1, 262150, 0, 1, 262151, 0, 3, 262152, 0, 1, 262153, 0, 1, 262154, 0, 3, 262155, 0, 4, 262156, 0, 3, 262157, 0, 1, 262158, 0, 3, 262159, 0, 4, 262160, 0, 1, 262161, 0, 0, 393214, 0, 0, 393215, 0, 4, 327680, 0, 3, 327681, 0, 1, 327682, 0, 3, 327683, 0, 4, 327684, 0, 3, 327685, 0, 0, 327686, 0, 5, 327687, 0, 1, 327688, 0, 3, 327689, 0, 3, 327690, 0, 1, 327691, 0, 3, 327692, 0, 3, 327693, 0, 4, 327694, 0, 1, 327695, 0, 1, 327696, 0, 4, 327697, 0, 0, 458750, 0, 0, 458751, 0, 1, 393216, 0, 5, 393217, 0, 1, 393218, 0, 3, 393219, 0, 4, 393220, 0, 1, 393221, 0, 1, 393222, 0, 1, 393223, 0, 3, 393224, 0, 1, 393225, 0, 1, 393226, 0, 1, 393227, 0, 3, 393228, 0, 1, 393229, 0, 4, 393230, 0, 1, 393231, 0, 1, 393232, 0, 3, 393233, 0, 0, 524286, 0, 0, 524287, 0, 1, 458752, 0, 3, 458753, 0, 4, 458754, 0, 3, 458755, 0, 3, 458756, 0, 4, 458757, 0, 4, 458758, 0, 1, 458759, 0, 1, 458760, 0, 3, 458761, 0, 4, 458762, 0, 1, 458763, 0, 4, 458764, 0, 3, 458765, 0, 3, 458766, 0, 4, 458767, 0, 1, 458768, 0, 3, 458769, 0, 0, 589822, 0, 0, 589823, 0, 2, 524288, 0, 1, 524289, 0, 1, 524290, 0, 1, 524291, 0, 1, 524292, 0, 1, 524293, 0, 4, 524294, 0, 0, 524295, 0, 1, 524296, 0, 2, 524297, 0, 5, 524298, 0, 1, 524299, 0, 2, 524300, 0, 1, 524301, 0, 4, 524302, 0, 1, 524303, 0, 3, 524304, 0, 3, 524305, 0, 0, 655358, 0, 0, 655359, 0, 1, 589824, 0, 2, 589825, 0, 0, 589826, 0, 3, 589827, 0, 4, 589828, 0, 4, 589829, 0, 3, 589830, 0, 3, 589831, 0, 4, 589832, 0, 3, 589833, 0, 3, 589834, 0, 1, 589835, 0, 1, 589836, 0, 4, 589837, 0, 3, 589838, 0, 4, 589839, 0, 3, 589840, 0, 3, 589841, 0, 0, 720894, 0, 0, 720895, 0, 3, 655360, 0, 3, 655361, 0, 1, 655362, 0, 1, 655363, 0, 3, 655364, 0, 3, 655365, 0, 1, 655366, 0, 3, 655367, 0, 1, 655368, 0, 1, 655369, 0, 3, 655370, 0, 3, 655371, 0, 1, 655372, 0, 1, 655373, 0, 2, 655374, 0, 3, 655375, 0, 3, 655376, 0, 3, 655377, 0, 0, 786430, 0, 0, 786431, 0, 0, 720896, 0, 0, 720897, 0, 0, 720898, 0, 0, 720899, 0, 0, 720900, 0, 0, 720901, 0, 0, 720902, 0, 0, 720903, 0, 0, 720904, 0, 0, 720905, 0, 0, 720906, 0, 0, 720907, 0, 0, 720908, 0, 0, 720909, 0, 0, 720910, 0, 0, 720911, 0, 0, 720912, 0, 0, 720913, 0, 0 )

[node name="Path" type="TileMap" parent="."]
tile_set = SubResource( 2 )
cell_size = Vector2( 32, 32 )
format = 1
tile_data = PoolIntArray( 65539, 0, 5, 65540, 0, 131078, 65541, 0, 196611, 65542, 0, 6, 65543, 0, 131078, 65544, 0, 7, 196607, 0, 196610, 131072, 0, 131078, 131073, 0, 131078, 131074, 0, 196611, 131075, 0, 131079, 131080, 0, 131077, 131081, 0, 131078, 131082, 0, 7, 196618, 0, 131077, 196619, 0, 196611, 196620, 0, 6, 196621, 0, 7, 262157, 0, 65541, 327685, 0, 5, 327686, 0, 131078, 327687, 0, 196611, 327688, 0, 131078, 327689, 0, 7, 327693, 0, 65537, 393219, 0, 5, 393220, 0, 6, 393221, 0, 131079, 393225, 0, 131077, 393226, 0, 6, 393227, 0, 6, 393228, 0, 196611, 393229, 0, 131079, 458755, 0, 65541, 524291, 0, 131077, 524292, 0, 131078, 524293, 0, 131078, 524294, 0, 7, 589830, 0, 65543, 655366, 0, 65539 )

[node name="TowerExclusion" type="TileMap" parent="."]
tile_set = SubResource( 2 )
cell_size = Vector2( 32, 32 )
format = 1
tile_data = PoolIntArray( 65539, 0, 5, 65540, 0, 131078, 65541, 0, 196611, 65542, 0, 6, 65543, 0, 131078, 65544, 0, 7, 196607, 0, 196610, 131072, 0, 131078, 131073, 0, 131078, 131074, 0, 196611, 131075, 0, 131079, 131080, 0, 131077, 131081, 0, 131078, 131082, 0, 7, 196618, 0, 131077, 196619, 0, 196611, 196620, 0, 6, 196621, 0, 7, 262157, 0, 65541, 327685, 0, 5, 327686, 0, 131078, 327687, 0, 196611, 327688, 0, 131078, 327689, 0, 7, 327693, 0, 65537, 393219, 0, 5, 393220, 0, 6, 393221, 0, 131079, 393225, 0, 131077, 393226, 0, 6, 393227, 0, 6, 393228, 0, 196611, 393229, 0, 131079, 458755, 0, 65541, 524291, 0, 131077, 524292, 0, 131078, 524293, 0, 6, 524294, 0, 196612, 589830, 2, 0, 655366, 0, 0 )

[node name="Tower" type="TileMap" parent="."]
tile_set = SubResource( 3 )
cell_size = Vector2( 32, 32 )
format = 1

[node name="GroundRoute" type="Path2D" parent="."]
curve = SubResource( 4 )

[node name="AreaBenteng" type="Area2D" parent="."]
position = Vector2( 207.358, 330.411 )
collision_layer = 0
collision_mask = 3

[node name="CollisionShape2D" type="CollisionShape2D" parent="AreaBenteng"]
position = Vector2( 0.293671, -0.138509 )
shape = SubResource( 5 )

[node name="AudioStreamPlayer" type="AudioStreamPlayer" parent="."]
script = ExtResource( 5 )

[connection signal="area_entered" from="AreaBenteng" to="." method="_on_AreaBenteng_area_entered"]
[connection signal="finished" from="AudioStreamPlayer" to="AudioStreamPlayer" method="_on_AudioStreamPlayer_finished"]
