[gd_scene load_steps=11 format=2]

[ext_resource path="res://Assets/Art/elf_tower.png" type="Texture" id=1]
[ext_resource path="res://Assets/Art/atlas_new.png" type="Texture" id=2]
[ext_resource path="res://Scripts/Level/LevelAlpha.gd" type="Script" id=3]
[ext_resource path="res://Scripts/AudioStreamPlayer2D.gd" type="Script" id=4]

[sub_resource type="TileSet" id=1]
0/name = "Background"
0/texture = ExtResource( 2 )
0/tex_offset = Vector2( 0, 0 )
0/modulate = Color( 1, 1, 1, 1 )
0/region = Rect2( 0, 0, 192, 32 )
0/tile_mode = 1
0/autotile/bitmask_mode = 0
0/autotile/bitmask_flags = [ Vector2( 0, 0 ), 325, Vector2( 1, 0 ), 325, Vector2( 2, 0 ), 325, Vector2( 3, 0 ), 325, Vector2( 4, 0 ), 325, Vector2( 5, 0 ), 325 ]
0/autotile/icon_coordinate = Vector2( 0, 0 )
0/autotile/tile_size = Vector2( 32, 32 )
0/autotile/spacing = 0
0/autotile/occluder_map = [  ]
0/autotile/navpoly_map = [  ]
0/autotile/priority_map = [ Vector3( 1, 0, 10 ), Vector3( 3, 0, 10 ), Vector3( 4, 0, 5 ) ]
0/autotile/z_index_map = [  ]
0/occluder_offset = Vector2( 0, 0 )
0/navigation_offset = Vector2( 0, 0 )
0/shape_offset = Vector2( 0, 0 )
0/shape_transform = Transform2D( 1, 0, 0, 1, 0, 0 )
0/shape_one_way = false
0/shape_one_way_margin = 0.0
0/shapes = [  ]
0/z_index = 0

[sub_resource type="TileSet" id=2]
0/name = "Path"
0/texture = ExtResource( 2 )
0/tex_offset = Vector2( 0, 0 )
0/modulate = Color( 1, 1, 1, 1 )
0/region = Rect2( 0, 32, 256, 128 )
0/tile_mode = 1
0/autotile/bitmask_mode = 1
0/autotile/bitmask_flags = [ Vector2( 0, 0 ), 16, Vector2( 1, 0 ), 128, Vector2( 1, 1 ), 146, Vector2( 1, 2 ), 2, Vector2( 2, 0 ), 432, Vector2( 2, 1 ), 438, Vector2( 2, 2 ), 54, Vector2( 2, 3 ), 48, Vector2( 3, 0 ), 504, Vector2( 3, 1 ), 511, Vector2( 3, 2 ), 63, Vector2( 3, 3 ), 56, Vector2( 4, 0 ), 216, Vector2( 4, 1 ), 219, Vector2( 4, 2 ), 27, Vector2( 4, 3 ), 24, Vector2( 5, 0 ), 176, Vector2( 5, 1 ), 146, Vector2( 5, 2 ), 50, Vector2( 6, 0 ), 56, Vector2( 6, 2 ), 56, Vector2( 7, 0 ), 152, Vector2( 7, 1 ), 146, Vector2( 7, 2 ), 26 ]
0/autotile/icon_coordinate = Vector2( 3, 1 )
0/autotile/tile_size = Vector2( 32, 32 )
0/autotile/spacing = 0
0/autotile/occluder_map = [  ]
0/autotile/navpoly_map = [  ]
0/autotile/priority_map = [  ]
0/autotile/z_index_map = [  ]
0/occluder_offset = Vector2( 0, 0 )
0/navigation_offset = Vector2( 0, 0 )
0/shape_offset = Vector2( 0, 0 )
0/shape_transform = Transform2D( 1, 0, 0, 1, 0, 0 )
0/shape_one_way = false
0/shape_one_way_margin = 0.0
0/shapes = [  ]
0/z_index = 0

[sub_resource type="TileSet" id=3]
0/name = "Elf_Tower"
0/texture = ExtResource( 1 )
0/tex_offset = Vector2( 0, 0 )
0/modulate = Color( 1, 1, 1, 1 )
0/region = Rect2( 0, 0, 32, 32 )
0/tile_mode = 0
0/occluder_offset = Vector2( 0, 0 )
0/navigation_offset = Vector2( 0, 0 )
0/shape_offset = Vector2( 0, 0 )
0/shape_transform = Transform2D( 1, 0, 0, 1, 0, 0 )
0/shape_one_way = false
0/shape_one_way_margin = 0.0
0/shapes = [  ]
0/z_index = 0

[sub_resource type="Curve2D" id=4]
_data = {
"points": PoolVector2Array( 0, 0, 0, 0, 368, -40, 0, 0, 0, 0, 368, 112, 0, 0, 0, 0, 432, 112, 0, 0, 0, 0, 432, 148, 0, 0, 0, 0, 464, 148, 0, 0, 0, 0, 464, 208, 0, 0, 0, 0, 304, 208, 0, 0, 0, 0, 304, 240, 0, 0, 0, 0, 176, 244, 0, 0, 0, 0, 176, 144, 0, 0, 0, 0, 240, 144, 0, 0, 0, 0, 240, 112, 0, 0, 0, 0, 304, 112, 0, 0, 0, 0, 304, 48, 0, 0, 0, 0, 112, 48, 0, 0, 0, 0, 112, 80, 0, 0, 0, 0, 52, 80, 0, 0, 0, 0, 52, 176, 0, 0, 0, 0, 80, 176, 0, 0, 0, 0, 80, 212, 0, 0, 0, 0, 112, 212, 0, 0, 0, 0, 112, 304, 0, 0, 0, 0, 176, 304, 0, 0, 0, 0, 176, 368, 0, 0, 0, 0, 112, 368, 0, 0, 0, 0, 112, 400, 0, 0, 0, 0, 80, 400, 0, 0, 0, 0, 80, 496, 0, 0, 0, 0, 144, 496, 0, 0, 0, 0, 144, 596, 0, 0, 0, 0, 208, 596, 0, 0, 0, 0, 208, 528, 0, 0, 0, 0, 240, 528, 0, 0, 0, 0, 240, 500, 0, 0, 0, 0, 272, 500, 0, 0, 0, 0, 272, 400, 0, 0, 0, 0, 304, 400, 0, 0, 0, 0, 304, 368, 0, 0, 0, 0, 368, 368, 0, 0, 0, 0, 368, 432, 0, 0, 0, 0, 400, 432, 0, 0, 0, 0, 400, 496, 0, 0, 0, 0, 544, 496 )
}

[sub_resource type="Curve2D" id=7]
_data = {
"points": PoolVector2Array( 0, 0, 0, 0, 368, -16, 0, 0, 0, 0, 48, 112, 0, 0, 0, 0, 464, 176, 0, 0, 0, 0, 112, 240, 0, 0, 0, 0, 176, 336, 0, 0, 0, 0, 100, 496, 0, 0, 0, 0, 184, 592, 0, 0, 0, 0, 336, 368, 0, 0, 0, 0, 528, 496 )
}

[sub_resource type="RectangleShape2D" id=5]

[node name="Level 2" type="Node2D"]
scale = Vector2( 2, 2 )
script = ExtResource( 3 )

[node name="Background" type="TileMap" parent="."]
tile_set = SubResource( 1 )
cell_size = Vector2( 32, 32 )
cell_custom_transform = Transform2D( 0, 0, 0, 0, 0, 0 )
format = 1
tile_data = PoolIntArray( -65538, 0, 0, -65537, 0, 0, -131072, 0, 0, -131071, 0, 0, -131070, 0, 0, -131069, 0, 0, -131068, 0, 0, -131067, 0, 0, -131066, 0, 0, -131065, 0, 0, -131064, 0, 0, -131063, 0, 0, -131062, 0, 0, -131061, 0, 0, -131060, 0, 0, -131059, 0, 0, -131058, 0, 0, -131057, 0, 0, -131056, 0, 0, -131055, 0, 0, -2, 0, 0, -1, 0, 1, -65536, 0, 3, -65535, 0, 1, -65534, 0, 3, -65533, 0, 2, -65532, 0, 1, -65531, 0, 3, -65530, 0, 3, -65529, 0, 1, -65528, 0, 1, -65527, 0, 1, -65526, 0, 1, -65525, 0, 1, -65524, 0, 3, -65523, 0, 3, -65522, 0, 4, -65521, 0, 1, -65520, 0, 1, -65519, 0, 0, 65534, 0, 0, 65535, 0, 4, 0, 0, 4, 1, 0, 3, 2, 0, 3, 3, 0, 1, 4, 0, 3, 5, 0, 1, 6, 0, 1, 7, 0, 3, 8, 0, 1, 9, 0, 4, 10, 0, 1, 11, 0, 1, 12, 0, 1, 13, 0, 4, 14, 0, 1, 15, 0, 3, 16, 0, 3, 17, 0, 0, 131070, 0, 0, 131071, 0, 1, 65536, 0, 2, 65537, 0, 3, 65538, 0, 1, 65539, 0, 4, 65540, 0, 3, 65541, 0, 1, 65542, 0, 3, 65543, 0, 3, 65544, 0, 1, 65545, 0, 3, 65546, 0, 1, 65547, 0, 1, 65548, 0, 4, 65549, 0, 5, 65550, 0, 1, 65551, 0, 3, 65552, 0, 1, 65553, 0, 0, 196606, 0, 0, 196607, 0, 3, 131072, 0, 1, 131073, 0, 4, 131074, 0, 5, 131075, 0, 1, 131076, 0, 3, 131077, 0, 3, 131078, 0, 1, 131079, 0, 1, 131080, 0, 4, 131081, 0, 1, 131082, 0, 3, 131083, 0, 3, 131084, 0, 3, 131085, 0, 1, 131086, 0, 4, 131087, 0, 1, 131088, 0, 3, 131089, 0, 0, 262142, 0, 0, 262143, 0, 3, 196608, 0, 4, 196609, 0, 4, 196610, 0, 1, 196611, 0, 4, 196612, 0, 1, 196613, 0, 1, 196614, 0, 1, 196615, 0, 1, 196616, 0, 3, 196617, 0, 3, 196618, 0, 3, 196619, 0, 1, 196620, 0, 3, 196621, 0, 3, 196622, 0, 1, 196623, 0, 1, 196624, 0, 4, 196625, 0, 0, 327678, 0, 0, 327679, 0, 3, 262144, 0, 5, 262145, 0, 1, 262146, 0, 3, 262147, 0, 1, 262148, 0, 1, 262149, 0, 1, 262150, 0, 1, 262151, 0, 3, 262152, 0, 1, 262153, 0, 1, 262154, 0, 3, 262155, 0, 4, 262156, 0, 3, 262157, 0, 1, 262158, 0, 3, 262159, 0, 4, 262160, 0, 1, 262161, 0, 0, 393214, 0, 0, 393215, 0, 4, 327680, 0, 3, 327681, 0, 1, 327682, 0, 3, 327683, 0, 4, 327684, 0, 3, 327685, 0, 0, 327686, 0, 5, 327687, 0, 1, 327688, 0, 3, 327689, 0, 3, 327690, 0, 1, 327691, 0, 3, 327692, 0, 3, 327693, 0, 4, 327694, 0, 1, 327695, 0, 1, 327696, 0, 4, 327697, 0, 0, 458750, 0, 0, 458751, 0, 1, 393216, 0, 5, 393217, 0, 1, 393218, 0, 3, 393219, 0, 4, 393220, 0, 1, 393221, 0, 1, 393222, 0, 1, 393223, 0, 3, 393224, 0, 1, 393225, 0, 1, 393226, 0, 1, 393227, 0, 3, 393228, 0, 1, 393229, 0, 4, 393230, 0, 1, 393231, 0, 1, 393232, 0, 3, 393233, 0, 0, 524286, 0, 0, 524287, 0, 1, 458752, 0, 3, 458753, 0, 4, 458754, 0, 3, 458755, 0, 3, 458756, 0, 4, 458757, 0, 4, 458758, 0, 1, 458759, 0, 1, 458760, 0, 3, 458761, 0, 4, 458762, 0, 1, 458763, 0, 4, 458764, 0, 3, 458765, 0, 3, 458766, 0, 4, 458767, 0, 1, 458768, 0, 3, 458769, 0, 0, 589822, 0, 0, 589823, 0, 2, 524288, 0, 1, 524289, 0, 1, 524290, 0, 1, 524291, 0, 1, 524292, 0, 1, 524293, 0, 4, 524294, 0, 0, 524295, 0, 1, 524296, 0, 2, 524297, 0, 5, 524298, 0, 1, 524299, 0, 2, 524300, 0, 1, 524301, 0, 4, 524302, 0, 1, 524303, 0, 3, 524304, 0, 3, 524305, 0, 0, 655358, 0, 0, 655359, 0, 1, 589824, 0, 2, 589825, 0, 0, 589826, 0, 3, 589827, 0, 4, 589828, 0, 4, 589829, 0, 3, 589830, 0, 3, 589831, 0, 4, 589832, 0, 3, 589833, 0, 3, 589834, 0, 1, 589835, 0, 1, 589836, 0, 4, 589837, 0, 3, 589838, 0, 4, 589839, 0, 3, 589840, 0, 3, 589841, 0, 0, 720894, 0, 0, 720895, 0, 3, 655360, 0, 4, 655361, 0, 1, 655362, 0, 4, 655363, 0, 3, 655364, 0, 3, 655365, 0, 1, 655366, 0, 3, 655367, 0, 1, 655368, 0, 1, 655369, 0, 3, 655370, 0, 3, 655371, 0, 1, 655372, 0, 1, 655373, 0, 2, 655374, 0, 3, 655375, 0, 3, 655376, 0, 3, 655377, 0, 0, 786430, 0, 0, 786431, 0, 2, 720896, 0, 4, 720897, 0, 3, 720898, 0, 1, 720899, 0, 1, 720900, 0, 1, 720901, 0, 1, 720902, 0, 3, 720903, 0, 3, 720904, 0, 1, 720905, 0, 3, 720906, 0, 1, 720907, 0, 3, 720908, 0, 4, 720909, 0, 5, 720910, 0, 1, 720911, 0, 4, 720912, 0, 1, 720913, 0, 0, 851966, 0, 0, 851967, 0, 1, 786432, 0, 0, 786433, 0, 3, 786434, 0, 4, 786435, 0, 5, 786436, 0, 3, 786437, 0, 1, 786438, 0, 4, 786439, 0, 3, 786440, 0, 1, 786441, 0, 3, 786442, 0, 3, 786443, 0, 3, 786444, 0, 1, 786445, 0, 1, 786446, 0, 3, 786447, 0, 1, 786448, 0, 1, 786449, 0, 0, 917502, 0, 0, 917503, 0, 3, 851968, 0, 3, 851969, 0, 3, 851970, 0, 5, 851971, 0, 3, 851972, 0, 1, 851973, 0, 1, 851974, 0, 5, 851975, 0, 1, 851976, 0, 4, 851977, 0, 0, 851978, 0, 4, 851979, 0, 3, 851980, 0, 3, 851981, 0, 3, 851982, 0, 1, 851983, 0, 4, 851984, 0, 4, 851985, 0, 0, 983038, 0, 0, 983039, 0, 3, 917504, 0, 1, 917505, 0, 3, 917506, 0, 3, 917507, 0, 1, 917508, 0, 1, 917509, 0, 1, 917510, 0, 1, 917511, 0, 0, 917512, 0, 3, 917513, 0, 3, 917514, 0, 3, 917515, 0, 0, 917516, 0, 1, 917517, 0, 4, 917518, 0, 1, 917519, 0, 1, 917520, 0, 1, 917521, 0, 0, 1048574, 0, 0, 1048575, 0, 4, 983040, 0, 4, 983041, 0, 1, 983042, 0, 3, 983043, 0, 1, 983044, 0, 4, 983045, 0, 4, 983046, 0, 3, 983047, 0, 1, 983048, 0, 1, 983049, 0, 4, 983050, 0, 3, 983051, 0, 3, 983052, 0, 3, 983053, 0, 3, 983054, 0, 1, 983055, 0, 1, 983056, 0, 1, 983057, 0, 0, 1114110, 0, 0, 1114111, 0, 1, 1048576, 0, 4, 1048577, 0, 1, 1048578, 0, 1, 1048579, 0, 3, 1048580, 0, 3, 1048581, 0, 1, 1048582, 0, 0, 1048583, 0, 3, 1048584, 0, 2, 1048585, 0, 4, 1048586, 0, 4, 1048587, 0, 3, 1048588, 0, 3, 1048589, 0, 1, 1048590, 0, 1, 1048591, 0, 1, 1048592, 0, 3, 1048593, 0, 0, 1179646, 0, 0, 1179647, 0, 1, 1114112, 0, 3, 1114113, 0, 1, 1114114, 0, 3, 1114115, 0, 3, 1114116, 0, 3, 1114117, 0, 1, 1114118, 0, 1, 1114119, 0, 1, 1114120, 0, 4, 1114121, 0, 1, 1114122, 0, 4, 1114123, 0, 1, 1114124, 0, 3, 1114125, 0, 4, 1114126, 0, 4, 1114127, 0, 1, 1114128, 0, 1, 1114129, 0, 0, 1245182, 0, 0, 1245183, 0, 4, 1179648, 0, 1, 1179649, 0, 5, 1179650, 0, 1, 1179651, 0, 3, 1179652, 0, 4, 1179653, 0, 4, 1179654, 0, 3, 1179655, 0, 1, 1179656, 0, 4, 1179657, 0, 1, 1179658, 0, 4, 1179659, 0, 2, 1179660, 0, 3, 1179661, 0, 5, 1179662, 0, 1, 1179663, 0, 1, 1179664, 0, 1, 1179665, 0, 0, 1310718, 0, 0, 1310719, 0, 3, 1245184, 0, 1, 1245185, 0, 1, 1245186, 0, 4, 1245187, 0, 4, 1245188, 0, 3, 1245189, 0, 1, 1245190, 0, 1, 1245191, 0, 4, 1245192, 0, 4, 1245193, 0, 1, 1245194, 0, 2, 1245195, 0, 1, 1245196, 0, 3, 1245197, 0, 1, 1245198, 0, 4, 1245199, 0, 3, 1245200, 0, 4, 1245201, 0, 0, 1376254, 0, 0, 1376255, 0, 4, 1310720, 0, 1, 1310721, 0, 1, 1310722, 0, 3, 1310723, 0, 1, 1310724, 0, 3, 1310725, 0, 2, 1310726, 0, 3, 1310727, 0, 3, 1310728, 0, 1, 1310729, 0, 3, 1310730, 0, 4, 1310731, 0, 4, 1310732, 0, 4, 1310733, 0, 4, 1310734, 0, 3, 1310735, 0, 1, 1310736, 0, 1, 1310737, 0, 0, 1441790, 0, 0, 1441791, 0, 4, 1376256, 0, 4, 1376257, 0, 1, 1376258, 0, 3, 1376259, 0, 1, 1376260, 0, 3, 1376261, 0, 4, 1376262, 0, 3, 1376263, 0, 1, 1376264, 0, 1, 1376265, 0, 4, 1376266, 0, 1, 1376267, 0, 0, 1376268, 0, 4, 1376269, 0, 3, 1376270, 0, 1, 1376271, 0, 4, 1376272, 0, 1, 1376273, 0, 0, 1507326, 0, 0, 1507327, 0, 1, 1441792, 0, 1, 1441793, 0, 5, 1441794, 0, 3, 1441795, 0, 3, 1441796, 0, 4, 1441797, 0, 3, 1441798, 0, 1, 1441799, 0, 4, 1441800, 0, 1, 1441801, 0, 3, 1441802, 0, 1, 1441803, 0, 3, 1441804, 0, 3, 1441805, 0, 2, 1441806, 0, 3, 1441807, 0, 3, 1441808, 0, 3, 1441809, 0, 0, 1572862, 0, 0, 1572863, 0, 0, 1507328, 0, 0, 1507329, 0, 0, 1507330, 0, 0, 1507331, 0, 0, 1507332, 0, 0, 1507333, 0, 0, 1507334, 0, 0, 1507335, 0, 0, 1507336, 0, 0, 1507337, 0, 0, 1507338, 0, 0, 1507339, 0, 0, 1507340, 0, 0, 1507341, 0, 0, 1507342, 0, 0, 1507343, 0, 0, 1507344, 0, 0, 1507345, 0, 0 )

[node name="TowerExclusion" type="TileMap" parent="."]
visible = false
tile_set = SubResource( 2 )
cell_size = Vector2( 32, 32 )
format = 1
tile_data = PoolIntArray( -65525, 0, 65539, 11, 0, 65543, 65539, 0, 5, 65540, 0, 131078, 65541, 0, 131078, 65542, 0, 131078, 65543, 0, 6, 65544, 0, 196611, 65545, 0, 7, 65547, 0, 65541, 131073, 0, 5, 131074, 0, 196611, 131075, 0, 131079, 131081, 0, 65543, 131083, 0, 65537, 196609, 0, 65541, 196615, 0, 5, 196616, 0, 196611, 196617, 0, 131079, 196619, 0, 131077, 196620, 0, 131078, 196621, 0, 7, 262145, 0, 65537, 262149, 0, 5, 262150, 0, 6, 262151, 0, 131079, 262157, 0, 131077, 262158, 0, 7, 327681, 0, 131077, 327682, 0, 7, 327685, 0, 65541, 327694, 0, 65541, 393218, 0, 131077, 393219, 0, 7, 393221, 0, 65537, 393225, 0, 5, 393226, 0, 6, 393227, 0, 196611, 393228, 0, 196611, 393229, 0, 196611, 393230, 0, 131079, 458755, 0, 65543, 458757, 0, 131077, 458758, 0, 131078, 458759, 0, 131078, 458760, 0, 131078, 458761, 0, 131079, 524291, 0, 65541, 589827, 0, 131077, 589828, 0, 131078, 589829, 0, 7, 655365, 0, 65541, 720899, 0, 5, 720900, 0, 196611, 720901, 0, 131079, 720905, 0, 5, 720906, 0, 131078, 720907, 0, 7, 786434, 0, 5, 786435, 0, 131079, 786440, 0, 5, 786441, 0, 131079, 786443, 0, 65543, 851970, 0, 65543, 851976, 0, 65537, 851979, 0, 131077, 851980, 0, 7, 917506, 0, 65543, 917512, 0, 65537, 917516, 0, 65543, 983042, 0, 131077, 983043, 0, 6, 983044, 0, 7, 983047, 0, 5, 983048, 0, 131079, 983052, 0, 131077, 983053, 0, 131078, 983054, 0, 131078, 983055, 0, 131078, 983056, 0, 196612, 1048580, 0, 65543, 1048582, 0, 5, 1048583, 0, 131079, 1114116, 0, 65537, 1114118, 0, 65543, 1179652, 0, 131077, 1179653, 0, 196611, 1179654, 0, 131079 )

[node name="Path" type="TileMap" parent="."]
tile_set = SubResource( 2 )
cell_size = Vector2( 32, 32 )
format = 1
tile_data = PoolIntArray( -65525, 0, 65539, 11, 0, 65543, 65539, 0, 5, 65540, 0, 131078, 65541, 0, 131078, 65542, 0, 131078, 65543, 0, 6, 65544, 0, 196611, 65545, 0, 7, 65547, 0, 65541, 131073, 0, 5, 131074, 0, 196611, 131075, 0, 131079, 131081, 0, 65543, 131083, 0, 65537, 196609, 0, 65541, 196615, 0, 5, 196616, 0, 196611, 196617, 0, 131079, 196619, 0, 131077, 196620, 0, 131078, 196621, 0, 7, 262145, 0, 65537, 262149, 0, 5, 262150, 0, 6, 262151, 0, 131079, 262157, 0, 131077, 262158, 0, 7, 327681, 0, 131077, 327682, 0, 7, 327685, 0, 65541, 327694, 0, 65541, 393218, 0, 131077, 393219, 0, 7, 393221, 0, 65537, 393225, 0, 5, 393226, 0, 6, 393227, 0, 196611, 393228, 0, 196611, 393229, 0, 196611, 393230, 0, 131079, 458755, 0, 65543, 458757, 0, 131077, 458758, 0, 131078, 458759, 0, 131078, 458760, 0, 131078, 458761, 0, 131079, 524291, 0, 65541, 589827, 0, 131077, 589828, 0, 131078, 589829, 0, 7, 655365, 0, 65541, 720899, 0, 5, 720900, 0, 196611, 720901, 0, 131079, 720905, 0, 5, 720906, 0, 131078, 720907, 0, 7, 786434, 0, 5, 786435, 0, 131079, 786440, 0, 5, 786441, 0, 131079, 786443, 0, 65543, 851970, 0, 65543, 851976, 0, 65537, 851979, 0, 131077, 851980, 0, 7, 917506, 0, 65543, 917512, 0, 65537, 917516, 0, 65543, 983042, 0, 131077, 983043, 0, 6, 983044, 0, 7, 983047, 0, 5, 983048, 0, 131079, 983052, 0, 131077, 983053, 0, 131078, 983054, 0, 131078, 983055, 0, 131078, 983056, 0, 196612, 1048580, 0, 65543, 1048582, 0, 5, 1048583, 0, 131079, 1114116, 0, 65537, 1114118, 0, 65543, 1179652, 0, 131077, 1179653, 0, 196611, 1179654, 0, 131079 )

[node name="Tower" type="TileMap" parent="."]
tile_set = SubResource( 3 )
cell_size = Vector2( 32, 32 )
format = 1

[node name="GroundRoute" type="Path2D" parent="."]
curve = SubResource( 4 )

[node name="AirRoute" type="Path2D" parent="."]
curve = SubResource( 7 )

[node name="AreaBenteng" type="Area2D" parent="."]
position = Vector2( 207.358, 330.411 )
collision_layer = 0
collision_mask = 3

[node name="CollisionShape2D" type="CollisionShape2D" parent="AreaBenteng"]
position = Vector2( 324.642, 165.589 )
shape = SubResource( 5 )

[node name="AudioStreamPlayer" type="AudioStreamPlayer" parent="."]
script = ExtResource( 4 )

[connection signal="area_entered" from="AreaBenteng" to="." method="_on_AreaBenteng_area_entered"]
[connection signal="finished" from="AudioStreamPlayer" to="AudioStreamPlayer" method="_on_AudioStreamPlayer_finished"]
