{
    "Level 1": [
        [["Goblin", 15, 1.5, "Ground"]],
        [["Goblin", 15, 0.5, "Ground"], ["Goblin", 20, 0.5, "Ground"]],
        [["Goblin", 25, 0.5, "Ground"], ["Hyena", 10, 1, "Ground"]],
        [["Hyena", 25, 0.5, "Ground"], ["Golem", 15, 2, "Ground"]]
    ],
    "Level 2": [
        [["Goblin", 15, 1, "Ground"]],
        [["Goblin", 25, 0.75, "Ground"], ["Hyena", 20, 1, "Ground"]],
        [["Goblin", 25, 0.5, "Ground"], ["Wyvern", 10, 1, "Air"]],
        [["Hyena", 25, 0.75, "Ground"], ["Golem", 20, 1, "Ground"]],
        [["Goblin", 50, 1, "Ground"], ["Dragon", 10, 2, "Air"]]
    ],
    "Level 3": [
        [["Goblin", 20, 1, "Ground"]],
        [["Goblin", 30, 0.5, "Ground"], ["Hyena", 15, 1, "Ground"]],
        [["Hyena", 40, 1, "Ground"]],
        [["Goblin", 25, 1, "Ground"], ["Golem", 15, 1, "Ground"]],
        [["Goblin", 50, 1, "Ground"], ["Wyvern", 25, 1, "Air"]],
        [["Hyena", 40, 0.5, "Ground"], ["Wyvern", 30, 0.75, "Air"]],
        [["Wyvern", 60, 0.5, "Air"]],
        [["Golem", 30, 0.75, "Ground"], ["Wyvern", 30, 0.5, "Air"], ["Dragon", 10, 2, "Air"]],
        [["Goblin", 70, 0.5, "Ground"], ["Hyena", 30, 0.25, "Ground"], ["Dragon", 15, 0.5, "Air"]]
    ]
}